module gitlab.com/flimzy/burrow

go 1.21

require (
	github.com/go-sql-driver/mysql v1.8.1
	github.com/google/go-cmp v0.6.0
	github.com/jackc/pgx/v5 v5.7.1
	github.com/mattn/go-sqlite3 v1.14.23
	github.com/testcontainers/testcontainers-go v0.32.0
	github.com/testcontainers/testcontainers-go/modules/mysql v0.32.0
	github.com/testcontainers/testcontainers-go/modules/postgres v0.32.0
	gitlab.com/flimzy/testy v0.14.0
)

require (
	dario.cat/mergo v1.0.0 // indirect
	filippo.io/edwards25519 v1.1.0 // indirect
	github.com/Azure/go-ansiterm v0.0.0-20230124172434-306776ec8161 // indirect
	github.com/Masterminds/semver/v3 v3.2.1 // indirect
	github.com/Microsoft/go-winio v0.6.2 // indirect
	github.com/Microsoft/hcsshim v0.12.5 // indirect
	github.com/cenkalti/backoff/v4 v4.3.0 // indirect
	github.com/containerd/containerd v1.7.20 // indirect
	github.com/containerd/log v0.1.0 // indirect
	github.com/containerd/platforms v0.2.1 // indirect
	github.com/cpuguy83/dockercfg v0.3.1 // indirect
	github.com/davecgh/go-spew v1.1.1 // indirect
	github.com/distribution/reference v0.6.0 // indirect
	github.com/docker/docker v27.0.3+incompatible // indirect
	github.com/docker/go-connections v0.5.0 // indirect
	github.com/docker/go-units v0.5.0 // indirect
	github.com/felixge/httpsnoop v1.0.4 // indirect
	github.com/go-logr/logr v1.4.2 // indirect
	github.com/go-logr/stdr v1.2.2 // indirect
	github.com/go-ole/go-ole v1.2.6 // indirect
	github.com/gogo/protobuf v1.3.2 // indirect
	github.com/google/uuid v1.6.0 // indirect
	github.com/jackc/pgpassfile v1.0.0 // indirect
	github.com/jackc/pgservicefile v0.0.0-20240606120523-5a60cdf6a761 // indirect
	github.com/jackc/puddle/v2 v2.2.2 // indirect
	github.com/klauspost/compress v1.17.9 // indirect
	github.com/lufia/plan9stats v0.0.0-20211012122336-39d0f177ccd0 // indirect
	github.com/magiconair/properties v1.8.7 // indirect
	github.com/moby/docker-image-spec v1.3.1 // indirect
	github.com/moby/patternmatcher v0.6.0 // indirect
	github.com/moby/sys/sequential v0.5.0 // indirect
	github.com/moby/sys/user v0.1.0 // indirect
	github.com/moby/term v0.5.0 // indirect
	github.com/morikuni/aec v1.0.0 // indirect
	github.com/opencontainers/go-digest v1.0.0 // indirect
	github.com/opencontainers/image-spec v1.1.0 // indirect
	github.com/pkg/errors v0.9.1 // indirect
	github.com/pmezard/go-difflib v1.0.0 // indirect
	github.com/power-devops/perfstat v0.0.0-20240221224432-82ca36839d55 // indirect
	github.com/shirou/gopsutil/v3 v3.24.5 // indirect
	github.com/shoenig/go-m1cpu v0.1.6 // indirect
	github.com/sirupsen/logrus v1.9.3 // indirect
	github.com/tklauser/go-sysconf v0.3.14 // indirect
	github.com/tklauser/numcpus v0.8.0 // indirect
	github.com/yusufpapurcu/wmi v1.2.4 // indirect
	go.opentelemetry.io/contrib/instrumentation/net/http/otelhttp v0.53.0 // indirect
	go.opentelemetry.io/otel v1.28.0 // indirect
	go.opentelemetry.io/otel/metric v1.28.0 // indirect
	go.opentelemetry.io/otel/trace v1.28.0 // indirect
	golang.org/x/crypto v0.27.0 // indirect
	golang.org/x/net v0.25.0 // indirect
	golang.org/x/sync v0.8.0 // indirect
	golang.org/x/sys v0.25.0 // indirect
	golang.org/x/text v0.18.0 // indirect
	google.golang.org/grpc v1.65.0 // indirect
	google.golang.org/protobuf v1.34.1 // indirect
)
